; Engine configuration file.
; It's best edited using the editor UI and not directly,
; since the parameters that go here are not all obvious.
;
; Format:
;   [section] ; section goes between []
;   param=value ; assign values to parameters

config_version=5

[application]

config/name="Space War"
run/main_scene="res://scenes/menus/menu.tscn"
config/features=PackedStringArray("4.2", "GL Compatibility")
config/icon="res://icon.svg"

[autoload]

ResourceStash="*res://resources/resource_stash.gd"

[display]

window/size/viewport_width=160
window/size/viewport_height=240
window/size/window_width_override=640
window/size/window_height_override=960
window/stretch/mode="canvas_items"

[layer_names]

2d_physics/layer_1="world"
2d_physics/layer_2="player_hurtbox"
2d_physics/layer_3="enemy_hurtbox"

[rendering]

textures/canvas_textures/default_texture_filter=0
renderer/rendering_method="gl_compatibility"
renderer/rendering_method.mobile="gl_compatibility"
