[gd_resource type="Resource" script_class="GameStats" load_steps=2 format=3 uid="uid://3vojpxwxwobe"]

[ext_resource type="Script" path="res://resources/game_stats.gd" id="1_soj06"]

[resource]
script = ExtResource("1_soj06")
score = 0
highscore = 0
