[gd_resource type="LabelSettings" load_steps=2 format=3 uid="uid://dvu52xndtj22v"]

[ext_resource type="FontFile" uid="uid://cb8aatiqfh140" path="res://assets/fonts/kenney_mini_square.ttf" id="1_rudim"]

[resource]
font = ExtResource("1_rudim")
font_size = 8
