[gd_scene load_steps=5 format=3 uid="uid://dkyjdqmvqaxpv"]

[ext_resource type="Script" path="res://scripts/menus/menu.gd" id="1_7r1aq"]
[ext_resource type="PackedScene" uid="uid://co3owpnrhf2kh" path="res://scenes/space_background.tscn" id="1_h1uw2"]
[ext_resource type="LabelSettings" uid="uid://beknh16ekhsvd" path="res://assets/menus/title_label_settings.tres" id="2_as6t0"]
[ext_resource type="LabelSettings" uid="uid://dvu52xndtj22v" path="res://assets/menus/default_label_settings.tres" id="3_emkfn"]

[node name="Menu" type="Control"]
layout_mode = 3
anchors_preset = 15
anchor_right = 1.0
anchor_bottom = 1.0
grow_horizontal = 2
grow_vertical = 2
script = ExtResource("1_7r1aq")

[node name="SpaceBackground" parent="." instance=ExtResource("1_h1uw2")]

[node name="CenterContainer" type="CenterContainer" parent="."]
layout_mode = 1
anchors_preset = 15
anchor_right = 1.0
anchor_bottom = 1.0
grow_horizontal = 2
grow_vertical = 2

[node name="VBoxContainer" type="VBoxContainer" parent="CenterContainer"]
layout_mode = 2

[node name="TitleLabel" type="Label" parent="CenterContainer/VBoxContainer"]
layout_mode = 2
text = "SpaceWar"
label_settings = ExtResource("2_as6t0")
horizontal_alignment = 1

[node name="StartLabel" type="Label" parent="CenterContainer/VBoxContainer"]
layout_mode = 2
text = "Press 'Space' to play"
label_settings = ExtResource("3_emkfn")
horizontal_alignment = 1

[node name="Label" type="Label" parent="CenterContainer/VBoxContainer"]
layout_mode = 2
text = "Press 'Escape' to quit game"
label_settings = ExtResource("3_emkfn")
